{
	"title": "sunnycash.title",
	"description": "sunnycash.description",
	"configuration": {
		"section1": {
			"title": "sunnycash.configurations",
			"fields": {
				"coupons_per_page": {
					"type": "number",
					"default_value": 18,
					"required": true,
					"min": 1,
					"step": 1,
					"label": "sunnycash.coupons_per_page"
				}
			}
		}
	}
}